4BIT-FINAL/final_wave.vcd
$date
	Sun May 03 16:56:23 2026
$end
$version
	Icarus Verilog
$end
$timescale
	1s
$end
$scope module tb_top $end
$var reg 1 ! clk $end
$var reg 1 " reset $end
$scope module uut $end
$var wire 1 ! clk $end
$var wire 1 " reset $end
$var wire 1 # z_flag $end
$var wire 1 $ w_en $end
$var wire 2 % st [1:0] $end
$var wire 4 & op [3:0] $end
$var wire 1 ' jmp $end
$var wire 1 ( i_pc $end
$var wire 1 ) br $end
$var wire 3 * alu_ctrl [2:0] $end
$var wire 1 + a_src $end
$scope module DP $end
$var wire 4 , alu_B_in [3:0] $end
$var wire 1 ! clk $end
$var wire 1 " clr $end
$var wire 1 # zero_flag $end
$var wire 1 $ wr_en $end
$var wire 2 - rt [1:0] $end
$var wire 2 . rs [1:0] $end
$var wire 2 / rd [1:0] $end
$var wire 4 0 pc_val [3:0] $end
$var wire 4 1 opcode [3:0] $end
$var wire 1 ' jump $end
$var wire 16 2 inst [15:0] $end
$var wire 1 ( inc_PC $end
$var wire 4 3 d2 [3:0] $end
$var wire 4 4 d1 [3:0] $end
$var wire 1 ) branch $end
$var wire 1 + alu_src $end
$var wire 4 5 alu_res [3:0] $end
$var wire 3 6 alu_control [2:0] $end
$var reg 4 7 mux_out [3:0] $end
$scope module ALU_inst $end
$var wire 4 8 B [3:0] $end
$var wire 3 9 alu_control [2:0] $end
$var wire 4 : A [3:0] $end
$var reg 4 ; result [3:0] $end
$upscope $end
$scope module IM_inst $end
$var wire 4 < addr [3:0] $end
$var reg 16 = instruction [15:0] $end
$upscope $end
$scope module PC_inst $end
$var wire 1 ! clk $end
$var wire 1 " clr $end
$var wire 4 > jump_addr [3:0] $end
$var wire 4 ? offset [3:0] $end
$var wire 1 ' jump $end
$var wire 1 ( inc_PC $end
$var wire 1 ) branch $end
$var reg 4 @ pc [3:0] $end
$upscope $end
$scope module RF_inst $end
$var wire 1 ! clk $end
$var wire 4 A data_in [3:0] $end
$var wire 2 B rd1 [1:0] $end
$var wire 2 C rd2 [1:0] $end
$var wire 2 D wr [1:0] $end
$var wire 1 $ write_enable $end
$var wire 4 E r3 [3:0] $end
$var wire 4 F r2 [3:0] $end
$var wire 4 G r1 [3:0] $end
$var wire 4 H r0 [3:0] $end
$var wire 4 I dec_out [3:0] $end
$var wire 4 J data_out2 [3:0] $end
$var wire 4 K data_out1 [3:0] $end
$scope module d1 $end
$var wire 2 L wr [1:0] $end
$var wire 1 $ write_enable $end
$var reg 4 M dec_out [3:0] $end
$upscope $end
$scope module m1 $end
$var wire 2 N sel [1:0] $end
$var wire 4 O in3 [3:0] $end
$var wire 4 P in2 [3:0] $end
$var wire 4 Q in1 [3:0] $end
$var wire 4 R in0 [3:0] $end
$var reg 4 S out [3:0] $end
$upscope $end
$scope module m2 $end
$var wire 2 T sel [1:0] $end
$var wire 4 U in3 [3:0] $end
$var wire 4 V in2 [3:0] $end
$var wire 4 W in1 [3:0] $end
$var wire 4 X in0 [3:0] $end
$var reg 4 Y out [3:0] $end
$upscope $end
$scope module reg0 $end
$var wire 1 ! clk $end
$var wire 4 Z d [3:0] $end
$var wire 1 [ load $end
$var reg 4 \ q [3:0] $end
$upscope $end
$scope module reg1 $end
$var wire 1 ! clk $end
$var wire 4 ] d [3:0] $end
$var wire 1 ^ load $end
$var reg 4 _ q [3:0] $end
$upscope $end
$scope module reg2 $end
$var wire 1 ! clk $end
$var wire 4 ` d [3:0] $end
$var wire 1 a load $end
$var reg 4 b q [3:0] $end
$upscope $end
$scope module reg3 $end
$var wire 1 ! clk $end
$var wire 4 c d [3:0] $end
$var wire 1 d load $end
$var reg 4 e q [3:0] $end
$upscope $end
$upscope $end
$upscope $end
$scope module control $end
$var wire 1 ! clock $end
$var wire 4 f opcode [3:0] $end
$var wire 1 " reset $end
$var wire 1 # zero_flag $end
$var parameter 2 g DECODE $end
$var parameter 2 h EXECUTE $end
$var parameter 2 i FETCH $end
$var parameter 2 j WRITEBACK $end
$var reg 3 k ALU_cntrl [2:0] $end
$var reg 1 + alu_src $end
$var reg 1 ) branch $end
$var reg 2 l current_state [1:0] $end
$var reg 1 ( inc_PC $end
$var reg 1 ' jump $end
$var reg 2 m next_state [1:0] $end
$var reg 2 n state [1:0] $end
$var reg 1 $ wr_en $end
$upscope $end
$upscope $end
$upscope $end
$enddefinitions $end
$comment Show the parameter values. $end
$dumpall
b11 j
b0 i
b10 h
b1 g
$end
#0
$dumpvars
bx n
b1 m
b0 l
b0 k
b10 f
b0 e
0d
b0 c
b0 b
0a
b0 `
b0 _
0^
b0 ]
b0 \
0[
b0 Z
b0 Y
b0 X
b0 W
b0 V
b0 U
b1 T
b0 S
b0 R
b0 Q
b0 P
b0 O
b0 N
b0 M
b0 L
b0 K
b0 J
b0 I
b0 H
b0 G
b0 F
b0 E
b0 D
b1 C
b0 B
b0 A
b0 @
b0 ?
b0 >
b1000010000 =
b0 <
b0 ;
b0 :
b0 9
b0 8
b0 7
b0 6
b0 5
b0 4
b0 3
b1000010000 2
b10 1
b0 0
b0 /
b0 .
b1 -
b0 ,
0+
b0 *
0)
0(
0'
b10 &
bx %
0$
1#
1"
0!
$end
#5
b0 %
b0 n
1!
#10
0!
#15
b10 *
b10 6
b10 9
b10 k
b10 m
b1 l
1!
0"
#20
b10 *
b10 6
b10 9
b10 k
0#
b1000 5
b1000 ;
b1000 A
b1000 Z
b1000 ]
b1000 `
b1000 c
b11 ,
b11 8
b11 7
b101 4
b101 :
b101 K
b101 S
b11 3
b11 J
b11 Y
0!
b1 E
b1 O
b1 U
b1 e
b10 F
b10 P
b10 V
b10 b
b11 G
b11 Q
b11 W
b11 _
b101 H
b101 R
b101 X
b101 \
#25
b1 5
b1 ;
b1 A
b1 Z
b1 ]
b1 `
b1 c
b0 *
b0 6
b0 9
b0 k
b11 m
b1 %
b1 n
b10 l
1!
#30
0!
#35
1[
b1 I
b1 M
1(
1$
b0 m
b10 %
b10 n
b11 l
1!
#40
0!
#45
0[
b0 I
b0 M
b11 >
b11 ?
b110 &
b110 1
b110 f
0(
0$
b1 m
b11000010011 2
b11000010011 =
b1 4
b1 :
b1 K
b1 S
b11 %
b11 n
b0 l
b1 0
b1 <
b1 @
b1 H
b1 R
b1 X
b1 \
1!
#50
0!
#55
b1 D
b1 L
b100 5
b100 ;
b100 A
b100 Z
b100 ]
b100 `
b100 c
1+
b10 *
b10 6
b10 9
b10 k
b10 m
b0 %
b0 n
b1 l
1!
#60
0!
#65
b0 D
b0 L
b1 5
b1 ;
b1 A
b1 Z
b1 ]
b1 `
b1 c
0+
b0 *
b0 6
b0 9
b0 k
b11 m
b1 %
b1 n
b10 l
1!
#70
0!
#75
1[
b1 I
b1 M
1(
1$
b0 m
b10 %
b10 n
b11 l
1!
#80
0!
#85
b10 ,
b10 8
b10 7
b10 5
b10 ;
b10 A
b10 Z
b10 ]
b10 `
b10 c
0[
b10 3
b10 J
b10 Y
b11 4
b11 :
b11 K
b11 S
b0 I
b0 M
b10 -
b10 C
b10 T
b1 .
b1 B
b1 N
b0 >
b0 ?
b11 &
b11 1
b11 f
0(
0$
b1 m
b1101100000 2
b1101100000 =
b11 %
b11 n
b0 l
b10 0
b10 <
b10 @
1!
#90
0!
#95
b1 5
b1 ;
b1 A
b1 Z
b1 ]
b1 `
b1 c
b110 *
b110 6
b110 9
b110 k
b10 m
b0 %
b0 n
b1 l
1!
#100
0!
#105
b10 5
b10 ;
b10 A
b10 Z
b10 ]
b10 `
b10 c
b0 *
b0 6
b0 9
b0 k
b11 m
b1 %
b1 n
b10 l
1!
#110
0!
#115
1[
b1 I
b1 M
1(
1$
b0 m
b10 %
b10 n
b11 l
1!
#120
0!
#125
1#
b0 5
b0 ;
b0 A
b0 Z
b0 ]
b0 `
b0 c
b1 ,
b1 8
b1 7
0[
b1 D
b1 L
b1 3
b1 J
b1 Y
b10 4
b10 :
b10 K
b10 S
b0 I
b0 M
b1 /
b11 -
b11 C
b11 T
b10 .
b10 B
b10 N
b100 >
b100 ?
b1000 &
b1000 1
b1000 f
0(
0$
b1 m
b100010110100 2
b100010110100 =
b11 %
b11 n
b0 l
b11 0
b11 <
b11 @
b10 H
b10 R
b10 X
b10 \
1!
#130
0!
#135
b111 *
b111 6
b111 9
b111 k
b10 m
b0 %
b0 n
b1 l
1!
#140
0!
#145
b0 *
b0 6
b0 9
b0 k
b11 m
b1 %
b1 n
b10 l
1!
#150
0!
#155
1^
b10 I
b10 M
1(
1$
b0 m
b10 %
b10 n
b11 l
1!
#160
0!
#165
b0 ,
b0 8
b0 7
0^
b0 D
b0 L
b0 3
b0 J
b0 Y
b0 I
b0 M
b0 /
b1 -
b1 C
b1 T
b0 .
b0 B
b0 N
b10 >
b10 ?
b1001 &
b1001 1
b1001 f
0(
0$
b1 m
b100100010010 2
b100100010010 =
b11 %
b11 n
b0 l
b100 0
b100 <
b100 @
b0 G
b0 Q
b0 W
b0 _
1!
#170
0!
#175
b10 m
b0 %
b0 n
b1 l
1!
#180
0!
#185
b11 m
b1 %
b1 n
b10 l
1!
#190
0!
#195
1[
b1 I
b1 M
1(
1$
b0 m
b10 %
b10 n
b11 l
1!
#200
0!
#205
0[
b0 I
b0 M
b1010 &
b1010 1
b1010 f
0(
0$
b1 m
b101000010010 2
b101000010010 =
b0 4
b0 :
b0 K
b0 S
b11 %
b11 n
b0 l
b101 0
b101 <
b101 @
b0 H
b0 R
b0 X
b0 \
1!
#210
0!
#215
b110 *
b110 6
b110 9
b110 k
b10 m
b0 %
b0 n
b1 l
1!
#220
0!
#225
1)
b0 *
b0 6
b0 9
b0 k
b11 m
b1 %
b1 n
b10 l
1!
#230
0!
#235
bx D
bx L
1(
1$
bx /
bx -
bx C
bx T
bx .
bx B
bx N
bx >
bx ?
bx &
bx 1
bx f
bx 2
bx =
0)
b0 m
b1000 0
b1000 <
b1000 @
b10 %
b10 n
b11 l
1!
#240
0!
#245
0(
0$
b1 m
b11 %
b11 n
b0 l
b1001 0
b1001 <
b1001 @
1!
#250
0!
#255
b10 m
b0 %
b0 n
b1 l
1!
#260
0!
#265
b11 m
b1 %
b1 n
b10 l
1!
#270
0!
#275
1(
1$
b0 m
b10 %
b10 n
b11 l
1!
#280
0!
#285
0(
0$
b1 m
b11 %
b11 n
b0 l
b1010 0
b1010 <
b1010 @
1!
#290
0!
#295
b10 m
b0 %
b0 n
b1 l
1!
#300
0!
#305
b11 m
b1 %
b1 n
b10 l
1!
#310
0!
#315
1(
1$
b0 m
b10 %
b10 n
b11 l
1!
